%YAML 1.1
%TAG !u! tag:unity3d.com,2011:
--- !u!21 &2100000
Material:
  serializedVersion: 6
  m_ObjectHideFlags: 0
  m_CorrespondingSourceObject: {fileID: 0}
  m_PrefabInstance: {fileID: 0}
  m_PrefabAsset: {fileID: 0}
  m_Name: Player7Material
  m_Shader: {fileID: 4800000, guid: eb607f5e8fc16e140b732f33d26c8c31, type: 3}
  m_ShaderKeywords: _TERRAIN_INSTANCED_PERPIXEL_NORMAL
  m_LightmapFlags: 4
  m_EnableInstancingVariants: 0
  m_DoubleSidedGI: 0
  m_CustomRenderQueue: 2225
  stringTagMap: {}
  disabledShaderPasses:
  - MOTIONVECTORS
  m_SavedProperties:
    serializedVersion: 3
    m_TexEnvs:
    - _MainTex:
        m_Texture: {fileID: 0}
        m_Scale: {x: 1, y: 1}
        m_Offset: {x: 0, y: 0}
    - _TerrainHolesTexture:
        m_Texture: {fileID: 0}
        m_Scale: {x: 1, y: 1}
        m_Offset: {x: 0, y: 0}
    m_Floats:
    - _AddPrecomputedVelocity: 0
    - _CullMode: 2
    - _EnableHeightBlend: 0
    - _EnableInstancedPerPixelNormal: 1
    - _HeightTransition: 0
    - _ReceivesSSR: 1
    - _SpecularOcclusionMode: 1
    - _StencilRef: 0
    - _StencilRefDepth: 8
    - _StencilRefGBuffer: 10
    - _StencilWriteMask: 6
    - _StencilWriteMaskDepth: 8
    - _StencilWriteMaskGBuffer: 14
    - _SupportDecals: 1
    - _TransparentZWrite: 0
    - _ZTestDepthEqualForOpaque: 3
    - _ZTestGBuffer: 4
    - _ZWrite: 1
    m_Colors:
    - _Color: {r: 0.057816006, g: 0.017799927, b: 0.1509434, a: 1}
    - _EmissionColor: {r: 1, g: 1, b: 1, a: 1}
  m_BuildTextureStacks: []
--- !u!114 &3007077589140143915
MonoBehaviour:
  m_ObjectHideFlags: 11
  m_CorrespondingSourceObject: {fileID: 0}
  m_PrefabInstance: {fileID: 0}
  m_PrefabAsset: {fileID: 0}
  m_GameObject: {fileID: 0}
  m_Enabled: 1
  m_EditorHideFlags: 0
  m_Script: {fileID: 11500000, guid: da692e001514ec24dbc4cca1949ff7e8, type: 3}
  m_Name: 
  m_EditorClassIdentifier: 
  version: 11
